reproduce figure1 a b c
…
  # Apply sign to distance
  dist * sign
}

library(dplyr)
library(ggplot2)
summit_distance<- signed_distance(TEAD4_summit[queryHits(hits)],
                                  TAZ_summit[subjectHits(hits)])

distance_df<- table(summit_distance) %>%
  tibble::as_tibble() 

distance_df

#> # A tibble: 383 × 2
#>    summit_distance     n
#>    <chr>           <int>
#>  1 -249                1
#>  2 -246                2
#>  3 -233                1
#>  4 -232                2
#>  5 -231                1
#>  6 -224                2
#>  7 -222                1
#>  8 -221                1
#>  9 -220                1
#> 10 -216                1
#> # ℹ 373 more rows
…
mutate(bin = floor(summit_distance / 5) * 5):

Groups summit_distance values into 5 bp bins by dividing by 5, taking
the floor (rounding down), and multiplying back by 5 to get the bin
lower bound.

# View the binned dataframe
print(df_binned)

#> # A tibble: 97 × 2
#>      bin     n
#>    <dbl> <dbl>
#>  1  -250  1.5 
#>  2  -235  1.33
#>  3  -225  1.33
#>  4  -220  1   
#>  5  -215  1   
#>  6  -210  2   
#>  7  -205  1.5 
#>  8  -200  1.33
#>  9  -195  1   
#> 10  -190  1   
#> # ℹ 87 more rows
…
