reproduce figure 1 i,j,k
…
make it to a long form:

bind_rows(YAP1_mean, TAZ_mean, TEAD4_mean) %>%
  mutate(factor = c("YAP1", "TAZ", "TEAD4")) %>%
  select(factor, everything()) %>%
  tidyr::pivot_longer(-factor)

#> # A tibble: 120 × 3
#>    factor name  value
#>    <chr>  <chr> <dbl>
#>  1 YAP1   u1     3.29
#>  2 YAP1   u2     3.34
#>  3 YAP1   u3     3.37
#>  4 YAP1   u4     3.43
#>  5 YAP1   u5     3.49
#>  6 YAP1   u6     3.58
#>  7 YAP1   u7     3.67
#>  8 YAP1   u8     3.78
#>  9 YAP1   u9     3.88
#> 10 YAP1   u10    4.01
#> # ℹ 110 more rows
…
